task_1a/comb_ckt/simulation/qsim/comb_ckt.msim.vcd
$comment
	File created using the following command:
		vcd file comb_ckt.msim.vcd -direction
$end
$date
	Sat Oct 01 18:01:50 2022
$end
$version
	ModelSim Version 10.5b
$end
$timescale
	1ps
$end

$scope module Mux_4_to_1_vlg_vec_tst $end
$var reg 1 ! I0 $end
$var reg 1 " I1 $end
$var reg 1 # I2 $end
$var reg 1 $ I3 $end
$var reg 1 % S0 $end
$var reg 1 & S1 $end
$var wire 1 ' out $end

$scope module i1 $end
$var wire 1 ( gnd $end
$var wire 1 ) vcc $end
$var wire 1 * unknown $end
$var tri1 1 + devclrn $end
$var tri1 1 , devpor $end
$var tri1 1 - devoe $end
$var wire 1 . out~output_o $end
$var wire 1 / I2~input_o $end
$var wire 1 0 I3~input_o $end
$var wire 1 1 S1~input_o $end
$var wire 1 2 I1~input_o $end
$var wire 1 3 S0~input_o $end
$var wire 1 4 I0~input_o $end
$var wire 1 5 m3|y~0_combout $end
$var wire 1 6 m3|y~1_combout $end
$upscope $end
$upscope $end
$enddefinitions $end
#0
$dumpvars
0!
0"
0#
0$
0%
0&
0'
0(
1)
x*
1+
1,
1-
0.
0/
00
01
02
03
04
05
06
$end
#40000
1!
14
15
16
1.
1'
#50000
1%
13
05
06
0.
0'
#75000
1&
11
15
#80000
1"
0!
12
04
#100000
0%
03
05
#120000
1#
1!
1/
14
16
1.
1'
#150000
0&
1%
01
13
15
06
0.
0'
16
1.
1'
#160000
1$
0"
0!
10
02
04
05
06
0.
0'
#200000
0%
1!
03
14
15
16
1.
1'
#225000
1&
11
05
#240000
0#
1"
0!
0/
12
04
06
0.
0'
#250000
1%
13
15
16
1.
1'
#280000
1!
14
#300000
0&
0%
01
03
#320000
0$
0"
0!
00
02
04
05
06
0.
0'
#350000
1%
13
#360000
1#
1!
1/
14
#375000
1&
11
15
16
1.
1'
06
0.
0'
#400000
1"
0%
0!
12
03
04
05
16
1.
1'
#440000
1!
14
#450000
0&
1%
01
13
15
06
0.
0'
16
1.
1'
#480000
1$
0#
0"
0!
10
0/
02
04
05
06
0.
0'
#500000
0%
03
#520000
1!
14
15
16
1.
1'
#525000
1&
11
05
06
0.
0'
#550000
1%
13
15
16
1.
1'
#560000
1"
0!
12
04
#600000
1#
0&
0%
1!
1/
01
03
14
#640000
0$
0"
0!
00
02
04
05
06
0.
0'
#650000
1%
13
#675000
1&
11
15
16
1.
1'
06
0.
0'
#680000
1!
14
#700000
0%
03
05
16
1.
1'
#720000
0#
1"
0!
0/
12
04
06
0.
0'
#750000
0&
1%
01
13
15
16
1.
1'
#760000
1!
14
#800000
1$
0"
0%
0!
10
02
03
04
05
06
0.
0'
#825000
1&
11
#840000
1#
1!
1/
14
16
1.
1'
#850000
1%
13
15
#880000
1"
0!
12
04
#900000
0&
0%
01
03
05
06
0.
0'
#920000
1!
14
15
16
1.
1'
#950000
1%
13
#960000
0$
0#
0"
0!
00
0/
02
04
05
06
0.
0'
#975000
1&
11
15
